Large datasets, focus on online access and management in R
…
COMADRE contains the key MPM information as well as plenty of
metadata. To explore what the names of the metadata mean, please consult
with: https://jonesor.github.io/CompadreGuides/user-guide.html).
Briefly, the metadata contains information relating to: - Full taxonomy
of the studied species (e.g., Kingdom, Phylum, Class,…, accepted Latin
name, common name) - Original source (e.g. year of publication, journal
name, authors) - Details of the study (e.g. start and end year, criteria
used to construct the MPM, GPS coordinates of the population, etc.)

#Explore the metadata in COMADRE
comadre@data

## # A tibble: 3,488 × 59
##    mat        MatrixID SpeciesAuthor SpeciesAccepted CommonName Kingdom  Phylum 
##    <list>        <int> <chr>         <chr>           <chr>      <chr>    <chr>  
##  1 <CompdrMt>   240296 Alces_alces   Alces alces     Moose      Animalia Chorda…
##  2 <CompdrMt>   240297 Alces_alces   Alces alces     Moose      Animalia Chorda…
##  3 <CompdrMt>   240298 Alces_alces   Alces alces     Moose      Animalia Chorda…
##  4 <CompdrMt>   240299 Alces_alces   Alces alces     Moose      Animalia Chorda…
##  5 <CompdrMt>   240300 Alces_alces   Alces alces     Moose      Animalia Chorda…
##  6 <CompdrMt>   240301 Alces_alces   Alces alces     Moose      Animalia Chorda…
##  7 <CompdrMt>   240302 Alces_alces   Alces alces     Moose      Animalia Chorda…
##  8 <CompdrMt>   240303 Alces_alces   Alces alces     Moose      Animalia Chorda…
##  9 <CompdrMt>   240304 Alces_alces   Alces alces     Moose      Animalia Chorda…
## 10 <CompdrMt>   240305 Alces_alces   Alces alces     Moose      Animalia Chorda…
## # ℹ 3,478 more rows
## # ℹ 52 more variables: Class <chr>, Order <chr>, Family <chr>, Genus <chr>,
## #   Species <chr>, Infraspecies <chr>, InfraspeciesType <chr>,
## #   OrganismType <chr>, DicotMonoc <chr>, AngioGymno <chr>, Authors <chr>,
## #   Journal <chr>, SourceType <chr>, OtherType <chr>, YearPublication <chr>,
## #   DOI_ISBN <chr>, AdditionalSource <chr>, StudyDuration <chr>,
## #   StudyStart <chr>, StudyEnd <chr>, ProjectionInterval <chr>, …
…
